{
  "id": "person-form",
  "formKey": "",
  "title": {
    "en": "User",
    "ru": "Пользователь"
  },
  "description": {},
  "customModule": null,
  "typeRef": "",
  "width": "default",
  "i18n": {},
  "definition": {
    "components": [
      {
        "columns": [
          {
            "components": [
              {
                "label": {
                  "en": "Columns"
                },
                "key": "objectObject",
                "columns": [
                  {
                    "components": [
                      {
                        "label": {
                          "en": "User Name",
                          "ru": "Имя пользователя"
                        },
                        "disabled": true,
                        "key": "id",
                        "validate": {
                          "pattern": "[\\w-@.]+",
                          "minLength": 3,
                          "maxLength": 100
                        },
                        "defaultValue": "",
                        "refreshOn": [],
                        "logic": [
                          {
                            "name": "enableUserNameField",
                            "trigger": {
                              "type": "javascript",
                              "javascript": "result = instance.options.formMode == 'CREATE';"
                            },
                            "actions": [
                              {
                                "name": "Enable id field",
                                "type": "property",
                                "property": {
                                  "label": "Disabled",
                                  "value": "disabled",
                                  "type": "boolean"
                                },
                                "state": "false"
                              },
                              {
                                "name": "Id field mandatory",
                                "type": "property",
                                "property": {
                                  "label": "Required",
                                  "value": "validate.required",
                                  "type": "boolean"
                                },
                                "state": "true"
                              }
                            ]
                          }
                        ],
                        "type": "textfield",
                        "input": true
                      },
                      {
                        "label": {
                          "en": "Email",
                          "ru": "Email"
                        },
                        "key": "email",
                        "validate": {
                          "required": true
                        },
                        "defaultValue": "",
                        "refreshOn": [],
                        "type": "email",
                        "input": true
                      },
                      {
                        "label": "birthDate",
                        "format": "dd-MM-yyyy",
                        "datePicker": {
                          "minDate": "",
                          "maxDate": ""
                        },
                        "defaultValue": "",
                        "key": "birthDate",
                        "type": "datetime",
                        "input": true,
                        "suffix": true
                      },
                      {
                        "label": "sex",
                        "dataSrc": "values",
                        "data": {
                          "values": [
                            {
                              "label": "Male",
                              "value": "male"
                            },
                            {
                              "label": "Female",
                              "value": "female"
                            }
                          ]
                        },
                        "defaultValue": "",
                        "key": "sex",
                        "type": "ecosSelect",
                        "input": true
                      },
                      {
                        "label": {
                          "en": "personDisabled"
                        },
                        "key": "personDisabled",
                        "labelPosition": "",
                        "defaultValue": false,
                        "refreshOn": [],
                        "type": "checkbox",
                        "input": true
                      }
                    ],
                    "md": 4,
                    "type": "column",
                    "input": false,
                    "key": "column",
                    "index": 0
                  },
                  {
                    "md": 4,
                    "type": "column",
                    "input": false,
                    "key": "column",
                    "index": 1,
                    "components": [
                      {
                        "label": {
                          "ru": "firstName"
                        },
                        "key": "firstName",
                        "validate": {
                          "required": true
                        },
                        "defaultValue": "",
                        "refreshOn": [],
                        "type": "textfield",
                        "input": true
                      },
                      {
                        "label": "lastName",
                        "clearOnHide": false,
                        "defaultValue": "",
                        "key": "lastName",
                        "type": "textfield",
                        "input": true
                      },
                      {
                        "label": "middleName",
                        "defaultValue": "",
                        "key": "middleName",
                        "type": "textfield",
                        "input": true
                      },
                      {
                        "label": "nameInGenitiveCase",
                        "defaultValue": "",
                        "key": "nameInGenitiveCase",
                        "type": "textfield",
                        "input": true
                      }
                    ]
                  },
                  {
                    "md": 4,
                    "type": "column",
                    "input": false,
                    "key": "column",
                    "index": 2,
                    "components": [
                      {
                        "label": "organization",
                        "clearOnHide": false,
                        "defaultValue": "",
                        "key": "organization",
                        "type": "textfield",
                        "input": true
                      },
                      {
                        "label": "jobTitle",
                        "defaultValue": "",
                        "key": "jobTitle",
                        "type": "textfield",
                        "input": true
                      },
                      {
                        "label": "city",
                        "defaultValue": "",
                        "key": "city",
                        "type": "textfield",
                        "input": true
                      },
                      {
                        "label": {
                          "en": "authorityGroups"
                        },
                        "multiple": true,
                        "key": "authorityGroups",
                        "reorder": false,
                        "journalId": "authority-groups",
                        "queryData": "",
                        "defaultValue": [],
                        "refreshOn": [],
                        "type": "selectJournal",
                        "input": true
                      }
                    ]
                  }
                ],
                "type": "columns",
                "input": false
              }
            ],
            "md": 12,
            "type": "column",
            "input": false,
            "key": "column",
            "label": "Column",
            "index": 0,
            "clearOnHide": true,
            "conditional": {
              "show": null,
              "when": null
            }
          }
        ],
        "key": "columns2",
        "type": "columns",
        "input": false
      },
      {
        "columns": [
          {
            "components": [
              {
                "label": "Cancel",
                "removeIndents": true,
                "action": "event",
                "state": "",
                "showValidations": false,
                "event": "cancel",
                "block": true,
                "clearOnHide": false,
                "key": "submit2",
                "type": "button",
                "input": true
              }
            ],
            "type": "column",
            "input": false,
            "key": "column",
            "index": 0,
            "md": 3
          },
          {
            "index": 1,
            "type": "column",
            "input": false,
            "key": "column",
            "components": [],
            "md": 3
          },
          {
            "md": 3,
            "type": "column",
            "input": false,
            "key": "column",
            "index": 2,
            "components": []
          },
          {
            "md": 3,
            "type": "column",
            "input": false,
            "key": "column",
            "index": 3,
            "components": [
              {
                "removeIndents": true,
                "state": "",
                "theme": "primary",
                "block": true,
                "disableOnInvalid": true,
                "clearOnHide": false,
                "key": "submit",
                "type": "button",
                "input": true
              }
            ]
          }
        ],
        "key": "columns3",
        "type": "columns",
        "input": false
      }
    ]
  },
  "attributes": {}
}
